Borisbikes · Rick van der Linden
…
## $ bikes_hired   <dbl> 4555, 6250, 7262, 13430, 13757, 9595, 9294, 9338, 105...
## $ season        <dbl> 1, 1, 1, 1, 1, 1, 1, 1, 1, 1, 1, 1, 1, 1, 1, 1, 1, 1,...
## $ min_temp      <dbl> 7.2, 4.0, 2.9, NA, 7.1, NA, 10.8, 10.4, 7.2, 8.9, 8.3...
## $ max_temp      <dbl> NA, NA, NA, 0.3, 3.8, NA, 1.0, NA, NA, -1.9, NA, 3.7,...
## $ avg_temp      <dbl> 5.6, 2.9, 1.4, 2.7, 5.6, 4.1, 6.1, 6.9, 3.1, 4.3, 5.8...
## $ avg_humidity  <dbl> 84, 79, 80, 87, 84, 92, 92, 82, 79, 87, 82, 89, 89, 8...
## $ avg_pressure  <dbl> 1025, 1028, 1024, 1013, 1000, 996, 999, 997, 1012, 10...
## $ avg_windspeed <dbl> 10, 8, 6, 6, 19, 5, 11, 23, 16, 14, 16, 16, 23, 24, 2...
## $ rainfall_mm   <dbl> 0.0, 0.5, 0.0, 0.0, 0.0, 0.5, 11.4, 13.0, 1.0, 0.0, 7...
## $ rain          <lgl> TRUE, FALSE, FALSE, TRUE, TRUE, TRUE, TRUE, TRUE, FAL...
## $ fog           <lgl> FALSE, FALSE, FALSE, FALSE, FALSE, TRUE, TRUE, FALSE,...
## $ thunderstorm  <lgl> FALSE, FALSE, FALSE, FALSE, FALSE, FALSE, FALSE, FALS...
## $ snow          <lgl> FALSE, FALSE, TRUE, FALSE, FALSE, TRUE, FALSE, FALSE,...

## # A tibble: 3,439 x 2
## # Groups:   season [4]
##    season date    
##     <dbl> <chr>   
##  1      1 01-01-11
##  2      1 02-01-11
##  3      1 03-01-11
##  4      1 04-01-11
##  5      1 05-01-11
##  6      1 06-01-11
##  7      1 07-01-11
##  8      1 08-01-11
##  9      1 09-01-11
## 10      1 10-01-11
## # ... with 3,429 more rows
…
